

Application Restarted
Menu: 		251,5065 		-(2012-12-13 14:14:15)
Menu: 		193,0136 		-(2012-12-13 14:28:50)
Menu: 		183,0548 		-(2012-12-13 14:29:02)
Menu: 		196,0777 		-(2012-12-13 14:30:46)
Menu: 		183,7141 		-(2012-12-13 14:30:49)
Menu: 		181,6311 		-(2012-12-13 14:34:31)
Menu: 		181,3185 		-(2012-12-13 14:35:12)
Menu: 		189,0664 		-(2012-12-13 14:37:06)
Menu: 		183,2339 		-(2012-12-13 14:38:13)
Menu: 		183,6062 		-(2012-12-13 14:39:24)
Menu: 		180,6349 		-(2012-12-13 14:48:15)
Menu: 		189,4796 		-(2012-12-13 15:02:41)
Menu: 		186,9628 		-(2012-12-13 15:04:19)
Menu: 		208,9902 		-(2012-12-13 15:14:01)
Menu: 		183,5437 		-(2012-12-13 15:14:49)
Menu: 		184,0164 		-(2012-12-13 15:15:02)
Menu: 		200,4318 		-(2012-12-13 15:28:04)
Menu: 		193,3337 		-(2012-12-13 15:31:35)
Menu: 		190,1504 		-(2012-12-13 15:32:01)
Menu: 		188,8754 		-(2012-12-13 15:36:53)
Menu: 		194,214 		-(2012-12-13 15:40:42)
Menu: 		183,4339 		-(2012-12-13 15:41:14)
Menu: 		180,6374 		-(2012-12-13 15:41:41)
Menu: 		177,7463 		-(2012-12-13 15:41:51)
Menu: 		189,4413 		-(2012-12-13 15:45:09)
Menu: 		232,8513 		-(2012-12-13 15:49:03)
Menu: 		184,03 		-(2012-12-13 15:50:23)
Menu: 		188,846 		-(2012-12-13 15:51:10)
Menu: 		192,6605 		-(2012-12-13 15:51:40)
Menu: 		184,3214 		-(2012-12-13 15:51:50)
Menu: 		189,4531 		-(2012-12-13 15:52:08)
Menu: 		182,4905 		-(2012-12-13 15:53:18)
Menu: 		188,0518 		-(2012-12-13 15:53:23)
Menu: 		186,2728 		-(2012-12-13 16:12:10)
Menu: 		186,6488 		-(2012-12-13 16:12:21)
Menu: 		187,4794 		-(2012-12-13 16:12:42)
Menu: 		183,0397 		-(2012-12-13 16:13:11)
Menu: 		182,5237 		-(2012-12-13 16:13:16)
Menu: 		177,1669 		-(2012-12-13 16:13:18)
Menu: 		178,8227 		-(2012-12-13 16:13:22)
Menu: 		188,4071 		-(2012-12-13 16:13:44)
Menu: 		184,6382 		-(2012-12-13 16:13:47)
Menu: 		182,9489 		-(2012-12-13 16:13:50)
Menu: 		181,7144 		-(2012-12-13 16:13:54)
Menu: 		189,2441 		-(2012-12-13 16:15:15)
Menu: 		182,8115 		-(2012-12-13 16:15:32)
Menu: 		185,5758 		-(2012-12-13 16:16:11)
